Week 7 homework Rmarkdown
…
Week 7 homework Rmarkdown

Statistical Analysis

Week 7

1 Dataset 1 analysis

Read in dataset 1 from github

dataset_1 <- vroom("https://raw.githubusercontent.com/eh17393/bioinformatics/main/Bioinformatics_data-master/Workshop%206/data%201.csv")

dataset_1

## # A tibble: 150 x 5
##        y    x1    x2    x3    x4
##    <dbl> <dbl> <dbl> <dbl> <dbl>
##  1 0.732  1.27  1.61  1.67  1.96
##  2 0.773  1.37  1.56  1.09  1.44
##  3 0.230  1.57  1.33  1.49  1.37
##  4 0.411  1.91  1.45  1.46  1.17
##  5 0.264  1.20  1.50  1.38  1.05
##  6 0.270  1.90  1.18  1.99  1.66
##  7 0.457  1.94  1.53  1.18  1.58
##  8 0.409  1.66  1.08  1.81  1.99
##  9 0.333  1.63  1.28  1.07  1.60
## 10 0.481  1.06  1.21  1.40  1.06
## # ... with 140 more rows
…
2 Dataset 2 analysis

Read in dataset 2 from github

dataset_2 <- vroom("https://raw.githubusercontent.com/eh17393/bioinformatics/main/Bioinformatics_data-master/Workshop%206/data%202.csv")

dataset_2

## # A tibble: 50 x 4
##         y    x1    x2    x3
##     <dbl> <dbl> <dbl> <dbl>
##  1 0.0363  1.05  1.69  1.84
##  2 0.102   1.53  1.25  1.08
##  3 0.123   1.44  1.41  1.72
##  4 0.123   1.91  1.12  1.86
##  5 0.0773  1.88  1.13  1.98
##  6 0.105   1.16  1.64  1.25
##  7 0.0399  1.75  1.35  1.02
##  8 0.232   1.40  1.42  1.22
##  9 0.0725  1.56  1.94  1.12
## 10 0.0757  1.08  1.38  1.39
## # ... with 40 more rows
…
3 Dataset 4 analysis

Read in dataset 4 from github

dataset_4 <- vroom("https://raw.githubusercontent.com/eh17393/bioinformatics/main/Bioinformatics_data-master/Workshop%206/data%204.csv")

dataset_4

## # A tibble: 170 x 4
##        y    x1    x2    x3
##    <dbl> <dbl> <dbl> <dbl>
##  1    35  1.44  1.71  1.57
##  2    16  1.76  1.08  1.56
##  3    38  1.71  1.61  1.43
##  4    26  1.17  1.49  1.96
##  5    20  1.87  1.27  1.71
##  6    10  1.09  1.29  1.26
##  7    13  1.16  1.48  1.93
##  8    50  1.85  1.96  1.42
##  9    24  1.63  1.42  1.82
## 10    20  1.21  1.84  1.75
## # ... with 160 more rows
…
