Week 6 Homework Rmarkdown
…
Week 6 Homework Rmarkdown

Statistical Analysis

Week 6

1 Tokyo Olympics 2021 Medal Data

Read in the Tokyo 2021 olympic medal data from github

medal_data <- vroom("https://raw.githubusercontent.com/chrit88/Bioinformatics_data/master/Workshop%205/Tokyo%202021%20medals.csv")

medal_data

## # A tibble: 89 x 4
##    Country            Gold Silver Bronze
##    <chr>             <dbl>  <dbl>  <dbl>
##  1 United States        39     41     33
##  2 Republic of China    38     32     18
##  3 Japan                27     14     17
##  4 Great Britain        22     21     22
##  5 Russia               20     28     23
##  6 Australia            17      7     22
##  7 Germany              10     11     16
##  8 Italy                10     10     20
##  9 France               10     12     11
## 10 Netherlands          10     12     14
## # ... with 79 more rows

Add GDP column for all countries by calling library(wbstats)

Extract GDP data for all countries for 2020 (no 2021 data)

all_GDP_data <- wb_data(indicator = "NY.GDP.MKTP.CD",
                        start_date = 2020,
                        end_date = 2020)
all_GDP_data

## # A tibble: 217 x 9
##    iso2c iso3c country             date NY.GDP.MKTP.CD unit  obs_status footnote
##    <chr> <chr> <chr>              <dbl>          <dbl> <chr> <chr>      <chr>   
##  1 AW    ABW   Aruba               2020            NA  <NA>  <NA>       <NA>    
##  2 AF    AFG   Afghanistan         2020   19807067268. <NA>  <NA>       <NA>    
##  3 AO    AGO   Angola              2020   62306913444. <NA>  <NA>       <NA>    
##  4 AL    ALB   Albania             2020   14799615097. <NA>  <NA>       <NA>    
##  5 AD    AND   Andorra             2020            NA  <NA>  <NA>       <NA>    
##  6 AE    ARE   United Arab Emira~  2020            NA  <NA>  <NA>       <NA>    
##  7 AR    ARG   Argentina           2020  383066977654. <NA>  <NA>       <NA>    
##  8 AM    ARM   Armenia             2020   12645459214. <NA>  <NA>       <NA>    
##  9 AS    ASM   American Samoa      2020            NA  <NA>  <NA>       <NA>    
## 10 AG    ATG   Antigua and Barbu~  2020    1415059259. <NA>  <NA>       <NA>    
## # ... with 207 more rows, and 1 more variable: last_updated <date>

Rename all_GDP_data column 5 to GDP

names(all_GDP_data)[5] <- "GDP"
all_GDP_data

## # A tibble: 217 x 9
##    iso2c iso3c country     date       GDP unit  obs_status footnote last_updated
##    <chr> <chr> <chr>      <dbl>     <dbl> <chr> <chr>      <chr>    <date>      
##  1 AW    ABW   Aruba       2020  NA       <NA>  <NA>       <NA>     2021-10-28  
##  2 AF    AFG   Afghanist~  2020   1.98e10 <NA>  <NA>       <NA>     2021-10-28  
##  3 AO    AGO   Angola      2020   6.23e10 <NA>  <NA>       <NA>     2021-10-28  
##  4 AL    ALB   Albania     2020   1.48e10 <NA>  <NA>       <NA>     2021-10-28  
##  5 AD    AND   Andorra     2020  NA       <NA>  <NA>       <NA>     2021-10-28  
##  6 AE    ARE   United Ar~  2020  NA       <NA>  <NA>       <NA>     2021-10-28  
##  7 AR    ARG   Argentina   2020   3.83e11 <NA>  <NA>       <NA>     2021-10-28  
##  8 AM    ARM   Armenia     2020   1.26e10 <NA>  <NA>       <NA>     2021-10-28  
##  9 AS    ASM   American ~  2020  NA       <NA>  <NA>       <NA>     2021-10-28  
## 10 AG    ATG   Antigua a~  2020   1.42e 9 <NA>  <NA>       <NA>     2021-10-28  
## # ... with 207 more rows

Ensure all countries are identified as the correct country before merging with world data by calling library(countrycode)

Add a column to medal data containing the country code

medal_data$code <- countrycode(medal_data$Country, 
                               origin = "country.name",
                               destination = "iso3c")

## Warning in countrycode_convert(sourcevar = sourcevar, origin = origin, destination = dest, : Some values were not matched unambiguously: Kosovo

medal_data

## # A tibble: 89 x 5
##    Country            Gold Silver Bronze code 
##    <chr>             <dbl>  <dbl>  <dbl> <chr>
##  1 United States        39     41     33 USA  
##  2 Republic of China    38     32     18 TWN  
##  3 Japan                27     14     17 JPN  
##  4 Great Britain        22     21     22 GBR  
##  5 Russia               20     28     23 RUS  
##  6 Australia            17      7     22 AUS  
##  7 Germany              10     11     16 DEU  
##  8 Italy                10     10     20 ITA  
##  9 France               10     12     11 FRA  
## 10 Netherlands          10     12     14 NLD  
## # ... with 79 more rows
…
Join two data sets

medal_GDP <- left_join(medal_data, 
                         all_GDP_data %>% dplyr::select(iso3c, GDP),
                         by = c("code" = "iso3c"))
medal_GDP

## # A tibble: 89 x 6
##    Country            Gold Silver Bronze code      GDP
##    <chr>             <dbl>  <dbl>  <dbl> <chr>   <dbl>
##  1 United States        39     41     33 USA   2.09e13
##  2 Republic of China    38     32     18 CHN   1.47e13
##  3 Japan                27     14     17 JPN   4.98e12
##  4 Great Britain        22     21     22 GBR   2.71e12
##  5 Russia               20     28     23 RUS   1.48e12
##  6 Australia            17      7     22 AUS   1.33e12
##  7 Germany              10     11     16 DEU   3.85e12
##  8 Italy                10     10     20 ITA   1.89e12
##  9 France               10     12     11 FRA   2.63e12
## 10 Netherlands          10     12     14 NLD   9.14e11
## # ... with 79 more rows
…
